<svg width="20" height="20" viewBox="0 0 20 20" fill="none" xmlns="http://www.w3.org/2000/svg">
<rect x="0.5" y="0.5" width="19" height="19" rx="3.5" fill="#081A34" stroke="#A6C2E9"/>
<path d="M5 9.99996L8.33333 13.3333L15 6.66663" stroke="#A6C2E9" stroke-width="1.5"/>
</svg>
