<svg width="20" height="20" viewBox="0 0 20 20" fill="none" xmlns="http://www.w3.org/2000/svg">
<g clip-path="url(#clip0_1444_5687)">
<path d="M17.7811 2.21666C17.4954 1.92688 17.0301 1.93096 16.7404 2.21666L14.1283 4.82872C10.8918 3.35944 7.43896 3.7186 4.14531 5.86947C1.69242 7.46936 0.202726 9.48146 0.141506 9.56717C-0.0543987 9.83654 -0.046236 10.2039 0.161913 10.4651C1.55773 12.1792 3.01886 13.5138 4.51263 14.4444L2.21483 16.7422C1.92914 17.0279 1.92914 17.4931 2.21483 17.7829C2.35768 17.9258 2.54542 17.9992 2.73316 17.9992C2.92091 17.9992 3.10865 17.9258 3.25149 17.7829L17.7811 3.2574C18.0668 2.97171 18.0668 2.50643 17.7811 2.21666ZM8.18176 10.7752C8.07565 10.5344 8.02259 10.2732 8.02259 9.99979C8.02259 9.4733 8.22666 8.97537 8.60214 8.59989C9.18986 8.01217 10.0592 7.87341 10.7775 8.17951L8.18176 10.7752ZM11.8631 7.09795C10.5285 6.24087 8.72867 6.39596 7.56548 7.55914C6.91247 8.21216 6.55739 9.07741 6.55739 9.99571C6.55739 10.6651 6.74921 11.3058 7.10429 11.8568L5.59011 13.371C4.26367 12.6037 2.95764 11.4691 1.68834 9.98755C2.23116 9.35086 3.37802 8.12237 4.94934 7.09795C7.66751 5.32665 10.3734 4.943 13.01 5.95109L11.8631 7.09795Z" fill="#4E698F"/>
<path d="M19.8381 9.53448C18.83 8.29375 17.7852 7.24893 16.7241 6.42041C16.4016 6.17145 15.9405 6.22859 15.6874 6.54693C15.4384 6.86528 15.4956 7.32647 15.8139 7.57951C16.6547 8.23661 17.4954 9.05288 18.3117 10.0079C17.8301 10.5711 16.8914 11.5833 15.618 12.5098C13.1651 14.2933 10.6878 14.9382 8.25936 14.4239C7.86346 14.3382 7.47166 14.5954 7.39003 14.9912C7.30432 15.3871 7.56144 15.7789 7.95734 15.8606C8.58994 15.9953 9.22664 16.0606 9.86741 16.0606C10.8306 16.0606 11.802 15.9096 12.7692 15.6075C14.0385 15.2116 15.2997 14.5586 16.52 13.6689C18.577 12.1629 19.8055 10.5018 19.8586 10.4324C20.0545 10.163 20.0463 9.79569 19.8381 9.53448Z" fill="#4E698F"/>
</g>
<defs>
<clipPath id="clip0_1444_5687">
<rect width="20" height="20" fill="white"/>
</clipPath>
</defs>
</svg>
