<svg width="256" height="46" viewBox="0 0 256 46" fill="none" xmlns="http://www.w3.org/2000/svg">
<g clip-path="url(#clip0_1_178)">
<path d="M20 43C31.0457 43 40 34.0457 40 23C40 11.9543 31.0457 3 20 3C8.95431 3 0 11.9543 0 23C0 34.0457 8.95431 43 20 43Z" fill="#0B69C7"/>
<path d="M29.6 32.6V25.568C29.6 22.112 28.856 19.472 24.824 19.472C22.88 19.472 21.584 20.528 21.056 21.536H21.008V19.784H17.192V32.6H21.176V26.24C21.176 24.56 21.488 22.952 23.552 22.952C25.592 22.952 25.616 24.848 25.616 26.336V32.576H29.6V32.6Z" fill="white"/>
<path d="M10.712 19.784H14.696V32.6H10.712V19.784Z" fill="white"/>
<path d="M12.704 13.4C11.432 13.4 10.4 14.432 10.4 15.704C10.4 16.976 11.432 18.032 12.704 18.032C13.976 18.032 15.008 16.976 15.008 15.704C15.008 14.432 13.976 13.4 12.704 13.4V13.4Z" fill="white"/>
</g>
<circle cx="90" cy="23" r="20" fill="#1877F2"/>
<path d="M87.2512 24.4825C87.1648 24.4825 85.265 24.4825 84.4014 24.4825C83.9408 24.4825 83.7969 24.3098 83.7969 23.878C83.7969 22.7265 83.7969 21.5463 83.7969 20.3949C83.7969 19.9343 83.9696 19.7904 84.4014 19.7904H87.2512C87.2512 19.704 87.2512 18.0344 87.2512 17.2572C87.2512 16.1058 87.4527 15.0119 88.0284 14.0044C88.6329 12.9681 89.4965 12.2772 90.5904 11.8742C91.31 11.6151 92.0297 11.5 92.8069 11.5H95.6279C96.0309 11.5 96.2036 11.6727 96.2036 12.0757V15.3573C96.2036 15.7603 96.0309 15.933 95.6279 15.933C94.8507 15.933 94.0735 15.933 93.2962 15.9618C92.519 15.9618 92.116 16.336 92.116 17.1421C92.0872 18.0056 92.116 18.8404 92.116 19.7328H95.4552C95.9158 19.7328 96.0885 19.9055 96.0885 20.3661V23.8492C96.0885 24.3098 95.9446 24.4537 95.4552 24.4537C94.4189 24.4537 92.2024 24.4537 92.116 24.4537V33.8379C92.116 34.3273 91.9721 34.5 91.4539 34.5C90.2449 34.5 89.0647 34.5 87.8557 34.5C87.4239 34.5 87.2512 34.3273 87.2512 33.8955C87.2512 30.873 87.2512 24.5688 87.2512 24.4825V24.4825Z" fill="white"/>
<path d="M163 43.2148C174.164 43.2148 183.215 34.1644 183.215 23C183.215 11.8357 174.164 2.78516 163 2.78516C151.836 2.78516 142.785 11.8357 142.785 23C142.785 34.1644 151.836 43.2148 163 43.2148Z" fill="url(#paint0_linear_1_178)"/>
<path d="M167.295 11.7695H158.714C154.887 11.7695 151.779 14.8781 151.779 18.7055V27.2855C151.779 31.1129 154.887 34.2215 158.714 34.2215H167.295C171.122 34.2215 174.23 31.1129 174.23 27.2855V18.7055C174.23 14.8781 171.122 11.7695 167.295 11.7695ZM171.724 27.2945C171.724 29.7383 169.738 31.7328 167.286 31.7328H158.705C156.262 31.7328 154.267 29.7473 154.267 27.2945V18.7145C154.267 16.2707 156.253 14.2762 158.705 14.2762H167.286C169.729 14.2762 171.724 16.2617 171.724 18.7145V27.2945Z" fill="white"/>
<path d="M163 17.259C159.837 17.259 157.259 19.8375 157.259 23C157.259 26.1625 159.837 28.741 163 28.741C166.162 28.741 168.741 26.1625 168.741 23C168.741 19.8375 166.162 17.259 163 17.259V17.259ZM163 26.4859C161.077 26.4859 159.514 24.9226 159.514 23C159.514 21.0773 161.077 19.514 163 19.514C164.923 19.514 166.486 21.0773 166.486 23C166.486 24.9226 164.923 26.4859 163 26.4859Z" fill="white"/>
<path d="M169.178 17.8884C169.707 17.8026 170.066 17.3044 169.981 16.7754C169.895 16.2465 169.397 15.8872 168.868 15.973C168.339 16.0587 167.98 16.557 168.065 17.0859C168.151 17.6149 168.649 17.9741 169.178 17.8884Z" fill="white"/>
<g clip-path="url(#clip1_1_178)">
<path d="M236 43C247.046 43 256 34.0457 256 23C256 11.9543 247.046 3 236 3C224.954 3 216 11.9543 216 23C216 34.0457 224.954 43 236 43Z" fill="#03A9F4"/>
<path d="M248.5 15.2466C247.559 15.6574 246.565 15.9303 245.546 16.0568C246.62 15.4202 247.422 14.4115 247.802 13.2223C246.797 13.8188 245.697 14.2388 244.55 14.4643C243.848 13.7129 242.935 13.1903 241.932 12.9645C240.928 12.7387 239.88 12.8201 238.923 13.1982C237.966 13.5763 237.145 14.2336 236.567 15.0845C235.989 15.9354 235.68 16.9406 235.681 17.9694C235.678 18.362 235.718 18.7539 235.801 19.1377C233.761 19.0375 231.766 18.5082 229.944 17.5843C228.123 16.6604 226.518 15.3627 225.232 13.776C224.571 14.9048 224.367 16.2432 224.66 17.5179C224.953 18.7925 225.722 19.907 226.809 20.6337C225.998 20.6118 225.203 20.3949 224.493 20.0013V20.0571C224.495 21.2403 224.905 22.3866 225.653 23.3033C226.401 24.2201 227.441 24.8514 228.6 25.0912C228.162 25.2064 227.71 25.2627 227.256 25.2588C226.93 25.2648 226.604 25.2359 226.284 25.1724C226.616 26.19 227.255 27.0797 228.113 27.7191C228.971 28.3586 230.006 28.7165 231.076 28.7435C229.263 30.1607 227.028 30.9305 224.727 30.9303C224.317 30.9338 223.907 30.9101 223.5 30.8592C225.847 32.3721 228.582 33.1715 231.374 33.1604C240.809 33.1604 245.968 25.3452 245.968 18.5713C245.968 18.3453 245.968 18.1268 245.95 17.9084C246.955 17.1834 247.819 16.2814 248.5 15.2466V15.2466Z" fill="white"/>
</g>
<defs>
<linearGradient id="paint0_linear_1_178" x1="147.608" y1="38.3921" x2="176.335" y2="9.66458" gradientUnits="userSpaceOnUse">
<stop stop-color="#FEE411"/>
<stop offset="0.0518459" stop-color="#FEDB16"/>
<stop offset="0.1381" stop-color="#FEC125"/>
<stop offset="0.2481" stop-color="#FE983D"/>
<stop offset="0.3762" stop-color="#FE5F5E"/>
<stop offset="0.5" stop-color="#FE2181"/>
<stop offset="1" stop-color="#9000DC"/>
</linearGradient>
<clipPath id="clip0_1_178">
<rect width="40" height="40" fill="white" transform="translate(0 3)"/>
</clipPath>
<clipPath id="clip1_1_178">
<rect width="40" height="40" fill="white" transform="translate(216 3)"/>
</clipPath>
</defs>
</svg>
